(['C:\\Users\\atana\\PycharmProjects\\RatioOfNumberList\\main.py'],
 ['C:\\Users\\atana\\PycharmProjects\\RatioOfNumberList',
  'C:\\Users\\atana\\PycharmProjects\\RatioOfNumberList'],
 ['codecs'],
 ['c:\\users\\atana\\pycharmprojects\\ratioofnumberlist\\venv\\lib\\site-packages\\_pyinstaller_hooks_contrib\\hooks\\stdhooks',
  'c:\\users\\atana\\pycharmprojects\\ratioofnumberlist\\venv\\lib\\site-packages\\_pyinstaller_hooks_contrib\\hooks\\stdhooks\\__pycache__',
  'c:\\users\\atana\\pycharmprojects\\ratioofnumberlist\\venv\\lib\\site-packages\\_pyinstaller_hooks_contrib\\hooks\\rthooks',
  'c:\\users\\atana\\pycharmprojects\\ratioofnumberlist\\venv\\lib\\site-packages\\_pyinstaller_hooks_contrib\\hooks\\rthooks\\__pycache__',
  'c:\\users\\atana\\pycharmprojects\\ratioofnumberlist\\venv\\lib\\site-packages\\_pyinstaller_hooks_contrib\\hooks'],
 {},
 [],
 [],
 False,
 False,
 False,
 '3.9.6 (tags/v3.9.6:db3ff76, Jun 28 2021, 15:26:21) [MSC v.1929 64 bit '
 '(AMD64)]',
 [('pyi_rth_pkgutil',
   'C:\\Users\\atana\\PycharmProjects\\RatioOfNumberList\\venv\\Lib\\site-packages\\PyInstaller\\hooks\\rthooks\\pyi_rth_pkgutil.py',
   'PYSOURCE'),
  ('pyi_rth_multiprocessing',
   'C:\\Users\\atana\\PycharmProjects\\RatioOfNumberList\\venv\\Lib\\site-packages\\PyInstaller\\hooks\\rthooks\\pyi_rth_multiprocessing.py',
   'PYSOURCE'),
  ('pyi_rth_inspect',
   'C:\\Users\\atana\\PycharmProjects\\RatioOfNumberList\\venv\\Lib\\site-packages\\PyInstaller\\hooks\\rthooks\\pyi_rth_inspect.py',
   'PYSOURCE'),
  ('main',
   'C:\\Users\\atana\\PycharmProjects\\RatioOfNumberList\\main.py',
   'PYSOURCE')],
 [('inspect', 'C:\\Python39\\lib\\inspect.py', 'PYMODULE'),
  ('importlib', 'C:\\Python39\\lib\\importlib\\__init__.py', 'PYMODULE'),
  ('importlib.abc', 'C:\\Python39\\lib\\importlib\\abc.py', 'PYMODULE'),
  ('typing', 'C:\\Python39\\lib\\typing.py', 'PYMODULE'),
  ('contextlib', 'C:\\Python39\\lib\\contextlib.py', 'PYMODULE'),
  ('importlib._bootstrap_external',
   'C:\\Python39\\lib\\importlib\\_bootstrap_external.py',
   'PYMODULE'),
  ('importlib.metadata',
   'C:\\Python39\\lib\\importlib\\metadata.py',
   'PYMODULE'),
  ('configparser', 'C:\\Python39\\lib\\configparser.py', 'PYMODULE'),
  ('posixpath', 'C:\\Python39\\lib\\posixpath.py', 'PYMODULE'),
  ('genericpath', 'C:\\Python39\\lib\\genericpath.py', 'PYMODULE'),
  ('stat', 'C:\\Python39\\lib\\stat.py', 'PYMODULE'),
  ('zipfile', 'C:\\Python39\\lib\\zipfile.py', 'PYMODULE'),
  ('py_compile', 'C:\\Python39\\lib\\py_compile.py', 'PYMODULE'),
  ('ntpath', 'C:\\Python39\\lib\\ntpath.py', 'PYMODULE'),
  ('string', 'C:\\Python39\\lib\\string.py', 'PYMODULE'),
  ('lzma', 'C:\\Python39\\lib\\lzma.py', 'PYMODULE'),
  ('_compression', 'C:\\Python39\\lib\\_compression.py', 'PYMODULE'),
  ('bz2', 'C:\\Python39\\lib\\bz2.py', 'PYMODULE'),
  ('_strptime', 'C:\\Python39\\lib\\_strptime.py', 'PYMODULE'),
  ('datetime', 'C:\\Python39\\lib\\datetime.py', 'PYMODULE'),
  ('calendar', 'C:\\Python39\\lib\\calendar.py', 'PYMODULE'),
  ('threading', 'C:\\Python39\\lib\\threading.py', 'PYMODULE'),
  ('_threading_local', 'C:\\Python39\\lib\\_threading_local.py', 'PYMODULE'),
  ('struct', 'C:\\Python39\\lib\\struct.py', 'PYMODULE'),
  ('shutil', 'C:\\Python39\\lib\\shutil.py', 'PYMODULE'),
  ('tarfile', 'C:\\Python39\\lib\\tarfile.py', 'PYMODULE'),
  ('gzip', 'C:\\Python39\\lib\\gzip.py', 'PYMODULE'),
  ('copy', 'C:\\Python39\\lib\\copy.py', 'PYMODULE'),
  ('fnmatch', 'C:\\Python39\\lib\\fnmatch.py', 'PYMODULE'),
  ('importlib.util', 'C:\\Python39\\lib\\importlib\\util.py', 'PYMODULE'),
  ('pathlib', 'C:\\Python39\\lib\\pathlib.py', 'PYMODULE'),
  ('urllib.parse', 'C:\\Python39\\lib\\urllib\\parse.py', 'PYMODULE'),
  ('urllib', 'C:\\Python39\\lib\\urllib\\__init__.py', 'PYMODULE'),
  ('email', 'C:\\Python39\\lib\\email\\__init__.py', 'PYMODULE'),
  ('email.parser', 'C:\\Python39\\lib\\email\\parser.py', 'PYMODULE'),
  ('email._policybase', 'C:\\Python39\\lib\\email\\_policybase.py', 'PYMODULE'),
  ('email.utils', 'C:\\Python39\\lib\\email\\utils.py', 'PYMODULE'),
  ('email._parseaddr', 'C:\\Python39\\lib\\email\\_parseaddr.py', 'PYMODULE'),
  ('socket', 'C:\\Python39\\lib\\socket.py', 'PYMODULE'),
  ('selectors', 'C:\\Python39\\lib\\selectors.py', 'PYMODULE'),
  ('random', 'C:\\Python39\\lib\\random.py', 'PYMODULE'),
  ('statistics', 'C:\\Python39\\lib\\statistics.py', 'PYMODULE'),
  ('decimal', 'C:\\Python39\\lib\\decimal.py', 'PYMODULE'),
  ('_pydecimal', 'C:\\Python39\\lib\\_pydecimal.py', 'PYMODULE'),
  ('contextvars', 'C:\\Python39\\lib\\contextvars.py', 'PYMODULE'),
  ('fractions', 'C:\\Python39\\lib\\fractions.py', 'PYMODULE'),
  ('numbers', 'C:\\Python39\\lib\\numbers.py', 'PYMODULE'),
  ('hashlib', 'C:\\Python39\\lib\\hashlib.py', 'PYMODULE'),
  ('logging', 'C:\\Python39\\lib\\logging\\__init__.py', 'PYMODULE'),
  ('pickle', 'C:\\Python39\\lib\\pickle.py', 'PYMODULE'),
  ('pprint', 'C:\\Python39\\lib\\pprint.py', 'PYMODULE'),
  ('doctest', 'C:\\Python39\\lib\\doctest.py', 'PYMODULE'),
  ('unittest', 'C:\\Python39\\lib\\unittest\\__init__.py', 'PYMODULE'),
  ('unittest.async_case',
   'C:\\Python39\\lib\\unittest\\async_case.py',
   'PYMODULE'),
  ('asyncio', 'C:\\Python39\\lib\\asyncio\\__init__.py', 'PYMODULE'),
  ('asyncio.unix_events',
   'C:\\Python39\\lib\\asyncio\\unix_events.py',
   'PYMODULE'),
  ('asyncio.log', 'C:\\Python39\\lib\\asyncio\\log.py', 'PYMODULE'),
  ('subprocess', 'C:\\Python39\\lib\\subprocess.py', 'PYMODULE'),
  ('signal', 'C:\\Python39\\lib\\signal.py', 'PYMODULE'),
  ('asyncio.windows_events',
   'C:\\Python39\\lib\\asyncio\\windows_events.py',
   'PYMODULE'),
  ('asyncio.windows_utils',
   'C:\\Python39\\lib\\asyncio\\windows_utils.py',
   'PYMODULE'),
  ('tempfile', 'C:\\Python39\\lib\\tempfile.py', 'PYMODULE'),
  ('asyncio.selector_events',
   'C:\\Python39\\lib\\asyncio\\selector_events.py',
   'PYMODULE'),
  ('ssl', 'C:\\Python39\\lib\\ssl.py', 'PYMODULE'),
  ('base64', 'C:\\Python39\\lib\\base64.py', 'PYMODULE'),
  ('getopt', 'C:\\Python39\\lib\\getopt.py', 'PYMODULE'),
  ('gettext', 'C:\\Python39\\lib\\gettext.py', 'PYMODULE'),
  ('asyncio.proactor_events',
   'C:\\Python39\\lib\\asyncio\\proactor_events.py',
   'PYMODULE'),
  ('asyncio.base_subprocess',
   'C:\\Python39\\lib\\asyncio\\base_subprocess.py',
   'PYMODULE'),
  ('asyncio.threads', 'C:\\Python39\\lib\\asyncio\\threads.py', 'PYMODULE'),
  ('asyncio.subprocess',
   'C:\\Python39\\lib\\asyncio\\subprocess.py',
   'PYMODULE'),
  ('asyncio.streams', 'C:\\Python39\\lib\\asyncio\\streams.py', 'PYMODULE'),
  ('asyncio.queues', 'C:\\Python39\\lib\\asyncio\\queues.py', 'PYMODULE'),
  ('asyncio.runners', 'C:\\Python39\\lib\\asyncio\\runners.py', 'PYMODULE'),
  ('asyncio.events', 'C:\\Python39\\lib\\asyncio\\events.py', 'PYMODULE'),
  ('asyncio.base_events',
   'C:\\Python39\\lib\\asyncio\\base_events.py',
   'PYMODULE'),
  ('concurrent.futures',
   'C:\\Python39\\lib\\concurrent\\futures\\__init__.py',
   'PYMODULE'),
  ('concurrent.futures.thread',
   'C:\\Python39\\lib\\concurrent\\futures\\thread.py',
   'PYMODULE'),
  ('queue', 'C:\\Python39\\lib\\queue.py', 'PYMODULE'),
  ('concurrent.futures.process',
   'C:\\Python39\\lib\\concurrent\\futures\\process.py',
   'PYMODULE'),
  ('multiprocessing.queues',
   'C:\\Python39\\lib\\multiprocessing\\queues.py',
   'PYMODULE'),
  ('multiprocessing.synchronize',
   'C:\\Python39\\lib\\multiprocessing\\synchronize.py',
   'PYMODULE'),
  ('multiprocessing.heap',
   'C:\\Python39\\lib\\multiprocessing\\heap.py',
   'PYMODULE'),
  ('multiprocessing.resource_tracker',
   'C:\\Python39\\lib\\multiprocessing\\resource_tracker.py',
   'PYMODULE'),
  ('multiprocessing.spawn',
   'C:\\Python39\\lib\\multiprocessing\\spawn.py',
   'PYMODULE'),
  ('runpy', 'C:\\Python39\\lib\\runpy.py', 'PYMODULE'),
  ('pkgutil', 'C:\\Python39\\lib\\pkgutil.py', 'PYMODULE'),
  ('zipimport', 'C:\\Python39\\lib\\zipimport.py', 'PYMODULE'),
  ('multiprocessing.process',
   'C:\\Python39\\lib\\multiprocessing\\process.py',
   'PYMODULE'),
  ('multiprocessing.util',
   'C:\\Python39\\lib\\multiprocessing\\util.py',
   'PYMODULE'),
  ('multiprocessing.forkserver',
   'C:\\Python39\\lib\\multiprocessing\\forkserver.py',
   'PYMODULE'),
  ('multiprocessing.context',
   'C:\\Python39\\lib\\multiprocessing\\context.py',
   'PYMODULE'),
  ('multiprocessing.popen_spawn_win32',
   'C:\\Python39\\lib\\multiprocessing\\popen_spawn_win32.py',
   'PYMODULE'),
  ('multiprocessing.popen_forkserver',
   'C:\\Python39\\lib\\multiprocessing\\popen_forkserver.py',
   'PYMODULE'),
  ('multiprocessing.popen_spawn_posix',
   'C:\\Python39\\lib\\multiprocessing\\popen_spawn_posix.py',
   'PYMODULE'),
  ('multiprocessing.popen_fork',
   'C:\\Python39\\lib\\multiprocessing\\popen_fork.py',
   'PYMODULE'),
  ('multiprocessing.sharedctypes',
   'C:\\Python39\\lib\\multiprocessing\\sharedctypes.py',
   'PYMODULE'),
  ('ctypes', 'C:\\Python39\\lib\\ctypes\\__init__.py', 'PYMODULE'),
  ('ctypes._endian', 'C:\\Python39\\lib\\ctypes\\_endian.py', 'PYMODULE'),
  ('multiprocessing.pool',
   'C:\\Python39\\lib\\multiprocessing\\pool.py',
   'PYMODULE'),
  ('multiprocessing.dummy',
   'C:\\Python39\\lib\\multiprocessing\\dummy\\__init__.py',
   'PYMODULE'),
  ('multiprocessing.dummy.connection',
   'C:\\Python39\\lib\\multiprocessing\\dummy\\connection.py',
   'PYMODULE'),
  ('multiprocessing.managers',
   'C:\\Python39\\lib\\multiprocessing\\managers.py',
   'PYMODULE'),
  ('multiprocessing.shared_memory',
   'C:\\Python39\\lib\\multiprocessing\\shared_memory.py',
   'PYMODULE'),
  ('secrets', 'C:\\Python39\\lib\\secrets.py', 'PYMODULE'),
  ('hmac', 'C:\\Python39\\lib\\hmac.py', 'PYMODULE'),
  ('multiprocessing.reduction',
   'C:\\Python39\\lib\\multiprocessing\\reduction.py',
   'PYMODULE'),
  ('multiprocessing.resource_sharer',
   'C:\\Python39\\lib\\multiprocessing\\resource_sharer.py',
   'PYMODULE'),
  ('multiprocessing.connection',
   'C:\\Python39\\lib\\multiprocessing\\connection.py',
   'PYMODULE'),
  ('xmlrpc.client', 'C:\\Python39\\lib\\xmlrpc\\client.py', 'PYMODULE'),
  ('xmlrpc', 'C:\\Python39\\lib\\xmlrpc\\__init__.py', 'PYMODULE'),
  ('xml.parsers.expat',
   'C:\\Python39\\lib\\xml\\parsers\\expat.py',
   'PYMODULE'),
  ('xml.parsers', 'C:\\Python39\\lib\\xml\\parsers\\__init__.py', 'PYMODULE'),
  ('xml', 'C:\\Python39\\lib\\xml\\__init__.py', 'PYMODULE'),
  ('xml.sax.expatreader',
   'C:\\Python39\\lib\\xml\\sax\\expatreader.py',
   'PYMODULE'),
  ('xml.sax.saxutils', 'C:\\Python39\\lib\\xml\\sax\\saxutils.py', 'PYMODULE'),
  ('urllib.request', 'C:\\Python39\\lib\\urllib\\request.py', 'PYMODULE'),
  ('getpass', 'C:\\Python39\\lib\\getpass.py', 'PYMODULE'),
  ('nturl2path', 'C:\\Python39\\lib\\nturl2path.py', 'PYMODULE'),
  ('ftplib', 'C:\\Python39\\lib\\ftplib.py', 'PYMODULE'),
  ('netrc', 'C:\\Python39\\lib\\netrc.py', 'PYMODULE'),
  ('shlex', 'C:\\Python39\\lib\\shlex.py', 'PYMODULE'),
  ('mimetypes', 'C:\\Python39\\lib\\mimetypes.py', 'PYMODULE'),
  ('http.cookiejar', 'C:\\Python39\\lib\\http\\cookiejar.py', 'PYMODULE'),
  ('http', 'C:\\Python39\\lib\\http\\__init__.py', 'PYMODULE'),
  ('urllib.response', 'C:\\Python39\\lib\\urllib\\response.py', 'PYMODULE'),
  ('urllib.error', 'C:\\Python39\\lib\\urllib\\error.py', 'PYMODULE'),
  ('xml.sax', 'C:\\Python39\\lib\\xml\\sax\\__init__.py', 'PYMODULE'),
  ('xml.sax.handler', 'C:\\Python39\\lib\\xml\\sax\\handler.py', 'PYMODULE'),
  ('xml.sax._exceptions',
   'C:\\Python39\\lib\\xml\\sax\\_exceptions.py',
   'PYMODULE'),
  ('xml.sax.xmlreader',
   'C:\\Python39\\lib\\xml\\sax\\xmlreader.py',
   'PYMODULE'),
  ('http.client', 'C:\\Python39\\lib\\http\\client.py', 'PYMODULE'),
  ('email.message', 'C:\\Python39\\lib\\email\\message.py', 'PYMODULE'),
  ('email.policy', 'C:\\Python39\\lib\\email\\policy.py', 'PYMODULE'),
  ('email.contentmanager',
   'C:\\Python39\\lib\\email\\contentmanager.py',
   'PYMODULE'),
  ('email.quoprimime', 'C:\\Python39\\lib\\email\\quoprimime.py', 'PYMODULE'),
  ('email.headerregistry',
   'C:\\Python39\\lib\\email\\headerregistry.py',
   'PYMODULE'),
  ('email.iterators', 'C:\\Python39\\lib\\email\\iterators.py', 'PYMODULE'),
  ('email.generator', 'C:\\Python39\\lib\\email\\generator.py', 'PYMODULE'),
  ('email._encoded_words',
   'C:\\Python39\\lib\\email\\_encoded_words.py',
   'PYMODULE'),
  ('quopri', 'C:\\Python39\\lib\\quopri.py', 'PYMODULE'),
  ('uu', 'C:\\Python39\\lib\\uu.py', 'PYMODULE'),
  ('optparse', 'C:\\Python39\\lib\\optparse.py', 'PYMODULE'),
  ('textwrap', 'C:\\Python39\\lib\\textwrap.py', 'PYMODULE'),
  ('multiprocessing',
   'C:\\Python39\\lib\\multiprocessing\\__init__.py',
   'PYMODULE'),
  ('concurrent.futures._base',
   'C:\\Python39\\lib\\concurrent\\futures\\_base.py',
   'PYMODULE'),
  ('concurrent', 'C:\\Python39\\lib\\concurrent\\__init__.py', 'PYMODULE'),
  ('asyncio.trsock', 'C:\\Python39\\lib\\asyncio\\trsock.py', 'PYMODULE'),
  ('asyncio.staggered', 'C:\\Python39\\lib\\asyncio\\staggered.py', 'PYMODULE'),
  ('asyncio.tasks', 'C:\\Python39\\lib\\asyncio\\tasks.py', 'PYMODULE'),
  ('asyncio.base_tasks',
   'C:\\Python39\\lib\\asyncio\\base_tasks.py',
   'PYMODULE'),
  ('asyncio.locks', 'C:\\Python39\\lib\\asyncio\\locks.py', 'PYMODULE'),
  ('asyncio.sslproto', 'C:\\Python39\\lib\\asyncio\\sslproto.py', 'PYMODULE'),
  ('asyncio.transports',
   'C:\\Python39\\lib\\asyncio\\transports.py',
   'PYMODULE'),
  ('asyncio.protocols', 'C:\\Python39\\lib\\asyncio\\protocols.py', 'PYMODULE'),
  ('asyncio.futures', 'C:\\Python39\\lib\\asyncio\\futures.py', 'PYMODULE'),
  ('asyncio.exceptions',
   'C:\\Python39\\lib\\asyncio\\exceptions.py',
   'PYMODULE'),
  ('asyncio.coroutines',
   'C:\\Python39\\lib\\asyncio\\coroutines.py',
   'PYMODULE'),
  ('asyncio.base_futures',
   'C:\\Python39\\lib\\asyncio\\base_futures.py',
   'PYMODULE'),
  ('asyncio.format_helpers',
   'C:\\Python39\\lib\\asyncio\\format_helpers.py',
   'PYMODULE'),
  ('asyncio.constants', 'C:\\Python39\\lib\\asyncio\\constants.py', 'PYMODULE'),
  ('unittest.signals', 'C:\\Python39\\lib\\unittest\\signals.py', 'PYMODULE'),
  ('unittest.main', 'C:\\Python39\\lib\\unittest\\main.py', 'PYMODULE'),
  ('unittest.runner', 'C:\\Python39\\lib\\unittest\\runner.py', 'PYMODULE'),
  ('unittest.loader', 'C:\\Python39\\lib\\unittest\\loader.py', 'PYMODULE'),
  ('unittest.suite', 'C:\\Python39\\lib\\unittest\\suite.py', 'PYMODULE'),
  ('unittest.case', 'C:\\Python39\\lib\\unittest\\case.py', 'PYMODULE'),
  ('unittest._log', 'C:\\Python39\\lib\\unittest\\_log.py', 'PYMODULE'),
  ('unittest.result', 'C:\\Python39\\lib\\unittest\\result.py', 'PYMODULE'),
  ('unittest.util', 'C:\\Python39\\lib\\unittest\\util.py', 'PYMODULE'),
  ('pdb', 'C:\\Python39\\lib\\pdb.py', 'PYMODULE'),
  ('pydoc', 'C:\\Python39\\lib\\pydoc.py', 'PYMODULE'),
  ('webbrowser', 'C:\\Python39\\lib\\webbrowser.py', 'PYMODULE'),
  ('http.server', 'C:\\Python39\\lib\\http\\server.py', 'PYMODULE'),
  ('socketserver', 'C:\\Python39\\lib\\socketserver.py', 'PYMODULE'),
  ('html', 'C:\\Python39\\lib\\html\\__init__.py', 'PYMODULE'),
  ('html.entities', 'C:\\Python39\\lib\\html\\entities.py', 'PYMODULE'),
  ('pydoc_data.topics', 'C:\\Python39\\lib\\pydoc_data\\topics.py', 'PYMODULE'),
  ('pydoc_data', 'C:\\Python39\\lib\\pydoc_data\\__init__.py', 'PYMODULE'),
  ('tty', 'C:\\Python39\\lib\\tty.py', 'PYMODULE'),
  ('sysconfig', 'C:\\Python39\\lib\\sysconfig.py', 'PYMODULE'),
  ('_aix_support', 'C:\\Python39\\lib\\_aix_support.py', 'PYMODULE'),
  ('_bootsubprocess', 'C:\\Python39\\lib\\_bootsubprocess.py', 'PYMODULE'),
  ('_osx_support', 'C:\\Python39\\lib\\_osx_support.py', 'PYMODULE'),
  ('distutils.log', 'C:\\Python39\\lib\\distutils\\log.py', 'PYMODULE'),
  ('distutils', 'C:\\Python39\\lib\\distutils\\__init__.py', 'PYMODULE'),
  ('distutils.ccompiler',
   'C:\\Python39\\lib\\distutils\\ccompiler.py',
   'PYMODULE'),
  ('distutils.fancy_getopt',
   'C:\\Python39\\lib\\distutils\\fancy_getopt.py',
   'PYMODULE'),
  ('distutils.debug', 'C:\\Python39\\lib\\distutils\\debug.py', 'PYMODULE'),
  ('distutils.util', 'C:\\Python39\\lib\\distutils\\util.py', 'PYMODULE'),
  ('distutils.filelist',
   'C:\\Python39\\lib\\distutils\\filelist.py',
   'PYMODULE'),
  ('distutils.dep_util',
   'C:\\Python39\\lib\\distutils\\dep_util.py',
   'PYMODULE'),
  ('distutils.dir_util',
   'C:\\Python39\\lib\\distutils\\dir_util.py',
   'PYMODULE'),
  ('distutils.file_util',
   'C:\\Python39\\lib\\distutils\\file_util.py',
   'PYMODULE'),
  ('distutils.spawn', 'C:\\Python39\\lib\\distutils\\spawn.py', 'PYMODULE'),
  ('distutils.errors', 'C:\\Python39\\lib\\distutils\\errors.py', 'PYMODULE'),
  ('distutils.sysconfig',
   'C:\\Python39\\lib\\distutils\\sysconfig.py',
   'PYMODULE'),
  ('distutils.text_file',
   'C:\\Python39\\lib\\distutils\\text_file.py',
   'PYMODULE'),
  ('platform', 'C:\\Python39\\lib\\platform.py', 'PYMODULE'),
  ('plistlib', 'C:\\Python39\\lib\\plistlib.py', 'PYMODULE'),
  ('glob', 'C:\\Python39\\lib\\glob.py', 'PYMODULE'),
  ('code', 'C:\\Python39\\lib\\code.py', 'PYMODULE'),
  ('codeop', 'C:\\Python39\\lib\\codeop.py', 'PYMODULE'),
  ('bdb', 'C:\\Python39\\lib\\bdb.py', 'PYMODULE'),
  ('cmd', 'C:\\Python39\\lib\\cmd.py', 'PYMODULE'),
  ('difflib', 'C:\\Python39\\lib\\difflib.py', 'PYMODULE'),
  ('__future__', 'C:\\Python39\\lib\\__future__.py', 'PYMODULE'),
  ('_compat_pickle', 'C:\\Python39\\lib\\_compat_pickle.py', 'PYMODULE'),
  ('bisect', 'C:\\Python39\\lib\\bisect.py', 'PYMODULE'),
  ('email.feedparser', 'C:\\Python39\\lib\\email\\feedparser.py', 'PYMODULE'),
  ('email._header_value_parser',
   'C:\\Python39\\lib\\email\\_header_value_parser.py',
   'PYMODULE'),
  ('email.header', 'C:\\Python39\\lib\\email\\header.py', 'PYMODULE'),
  ('email.base64mime', 'C:\\Python39\\lib\\email\\base64mime.py', 'PYMODULE'),
  ('email.charset', 'C:\\Python39\\lib\\email\\charset.py', 'PYMODULE'),
  ('email.encoders', 'C:\\Python39\\lib\\email\\encoders.py', 'PYMODULE'),
  ('email.errors', 'C:\\Python39\\lib\\email\\errors.py', 'PYMODULE'),
  ('csv', 'C:\\Python39\\lib\\csv.py', 'PYMODULE'),
  ('importlib._bootstrap',
   'C:\\Python39\\lib\\importlib\\_bootstrap.py',
   'PYMODULE'),
  ('argparse', 'C:\\Python39\\lib\\argparse.py', 'PYMODULE'),
  ('token', 'C:\\Python39\\lib\\token.py', 'PYMODULE'),
  ('tokenize', 'C:\\Python39\\lib\\tokenize.py', 'PYMODULE'),
  ('importlib.machinery',
   'C:\\Python39\\lib\\importlib\\machinery.py',
   'PYMODULE'),
  ('dis', 'C:\\Python39\\lib\\dis.py', 'PYMODULE'),
  ('opcode', 'C:\\Python39\\lib\\opcode.py', 'PYMODULE'),
  ('ast', 'C:\\Python39\\lib\\ast.py', 'PYMODULE'),
  ('os', 'C:\\Python39\\lib\\os.py', 'PYMODULE'),
  ('stringprep', 'C:\\Python39\\lib\\stringprep.py', 'PYMODULE'),
  ('_py_abc', 'C:\\Python39\\lib\\_py_abc.py', 'PYMODULE'),
  ('tracemalloc', 'C:\\Python39\\lib\\tracemalloc.py', 'PYMODULE')],
 [('python39.dll', 'C:\\Python39\\python39.dll', 'BINARY'),
  ('VCRUNTIME140.dll', 'C:\\Python39\\VCRUNTIME140.dll', 'BINARY'),
  ('_lzma', 'C:\\Python39\\DLLs\\_lzma.pyd', 'EXTENSION'),
  ('_bz2', 'C:\\Python39\\DLLs\\_bz2.pyd', 'EXTENSION'),
  ('unicodedata', 'C:\\Python39\\DLLs\\unicodedata.pyd', 'EXTENSION'),
  ('select', 'C:\\Python39\\DLLs\\select.pyd', 'EXTENSION'),
  ('_socket', 'C:\\Python39\\DLLs\\_socket.pyd', 'EXTENSION'),
  ('_decimal', 'C:\\Python39\\DLLs\\_decimal.pyd', 'EXTENSION'),
  ('_overlapped', 'C:\\Python39\\DLLs\\_overlapped.pyd', 'EXTENSION'),
  ('_ssl', 'C:\\Python39\\DLLs\\_ssl.pyd', 'EXTENSION'),
  ('_asyncio', 'C:\\Python39\\DLLs\\_asyncio.pyd', 'EXTENSION'),
  ('_queue', 'C:\\Python39\\DLLs\\_queue.pyd', 'EXTENSION'),
  ('_ctypes', 'C:\\Python39\\DLLs\\_ctypes.pyd', 'EXTENSION'),
  ('_multiprocessing', 'C:\\Python39\\DLLs\\_multiprocessing.pyd', 'EXTENSION'),
  ('pyexpat', 'C:\\Python39\\DLLs\\pyexpat.pyd', 'EXTENSION'),
  ('_hashlib', 'C:\\Python39\\DLLs\\_hashlib.pyd', 'EXTENSION'),
  ('libssl-1_1.dll', 'C:\\Python39\\DLLs\\libssl-1_1.dll', 'BINARY'),
  ('libcrypto-1_1.dll', 'C:\\Python39\\DLLs\\libcrypto-1_1.dll', 'BINARY'),
  ('libffi-7.dll', 'C:\\Python39\\DLLs\\libffi-7.dll', 'BINARY')],
 [],
 [],
 [('base_library.zip',
   'C:\\Users\\atana\\PycharmProjects\\RatioOfNumberList\\build\\main\\base_library.zip',
   'DATA')],
 [])
