('C:\\Users\\atana\\PycharmProjects\\RatioOfNumberList\\build\\RatioOfNumbers\\PKG-00.pkg',
 {'BINARY': 1,
  'DATA': 1,
  'EXECUTABLE': 1,
  'EXTENSION': 1,
  'PYMODULE': 1,
  'PYSOURCE': 1,
  'PYZ': 0,
  'SPLASH': 1},
 [('PYZ-00.pyz',
   'C:\\Users\\atana\\PycharmProjects\\RatioOfNumberList\\build\\RatioOfNumbers\\PYZ-00.pyz',
   'PYZ'),
  ('struct', 'C:\\Python39\\lib\\struct.pyo', 'PYMODULE'),
  ('pyimod01_os_path',
   'c:\\users\\atana\\pycharmprojects\\ratioofnumberlist\\venv\\lib\\site-packages\\PyInstaller\\loader\\pyimod01_os_path.pyc',
   'PYMODULE'),
  ('pyimod02_archive',
   'c:\\users\\atana\\pycharmprojects\\ratioofnumberlist\\venv\\lib\\site-packages\\PyInstaller\\loader\\pyimod02_archive.pyc',
   'PYMODULE'),
  ('pyimod03_importers',
   'c:\\users\\atana\\pycharmprojects\\ratioofnumberlist\\venv\\lib\\site-packages\\PyInstaller\\loader\\pyimod03_importers.pyc',
   'PYMODULE'),
  ('pyimod04_ctypes',
   'c:\\users\\atana\\pycharmprojects\\ratioofnumberlist\\venv\\lib\\site-packages\\PyInstaller\\loader\\pyimod04_ctypes.pyc',
   'PYMODULE'),
  ('pyiboot01_bootstrap',
   'c:\\users\\atana\\pycharmprojects\\ratioofnumberlist\\venv\\lib\\site-packages\\PyInstaller\\loader\\pyiboot01_bootstrap.py',
   'PYSOURCE'),
  ('pyi_rth_pkgutil',
   'C:\\Users\\atana\\PycharmProjects\\RatioOfNumberList\\venv\\Lib\\site-packages\\PyInstaller\\hooks\\rthooks\\pyi_rth_pkgutil.py',
   'PYSOURCE'),
  ('pyi_rth_multiprocessing',
   'C:\\Users\\atana\\PycharmProjects\\RatioOfNumberList\\venv\\Lib\\site-packages\\PyInstaller\\hooks\\rthooks\\pyi_rth_multiprocessing.py',
   'PYSOURCE'),
  ('pyi_rth_inspect',
   'C:\\Users\\atana\\PycharmProjects\\RatioOfNumberList\\venv\\Lib\\site-packages\\PyInstaller\\hooks\\rthooks\\pyi_rth_inspect.py',
   'PYSOURCE'),
  ('RatioOfNumbers',
   'C:\\Users\\atana\\PycharmProjects\\RatioOfNumberList\\RatioOfNumbers.py',
   'PYSOURCE'),
  ('VCRUNTIME140.dll', 'C:\\Python39\\VCRUNTIME140.dll', 'BINARY'),
  ('python39.dll', 'C:\\Python39\\python39.dll', 'BINARY'),
  ('_lzma', 'C:\\Python39\\DLLs\\_lzma.pyd', 'EXTENSION'),
  ('_bz2', 'C:\\Python39\\DLLs\\_bz2.pyd', 'EXTENSION'),
  ('unicodedata', 'C:\\Python39\\DLLs\\unicodedata.pyd', 'EXTENSION'),
  ('select', 'C:\\Python39\\DLLs\\select.pyd', 'EXTENSION'),
  ('_socket', 'C:\\Python39\\DLLs\\_socket.pyd', 'EXTENSION'),
  ('_decimal', 'C:\\Python39\\DLLs\\_decimal.pyd', 'EXTENSION'),
  ('_overlapped', 'C:\\Python39\\DLLs\\_overlapped.pyd', 'EXTENSION'),
  ('_ssl', 'C:\\Python39\\DLLs\\_ssl.pyd', 'EXTENSION'),
  ('_asyncio', 'C:\\Python39\\DLLs\\_asyncio.pyd', 'EXTENSION'),
  ('_queue', 'C:\\Python39\\DLLs\\_queue.pyd', 'EXTENSION'),
  ('_ctypes', 'C:\\Python39\\DLLs\\_ctypes.pyd', 'EXTENSION'),
  ('_multiprocessing', 'C:\\Python39\\DLLs\\_multiprocessing.pyd', 'EXTENSION'),
  ('pyexpat', 'C:\\Python39\\DLLs\\pyexpat.pyd', 'EXTENSION'),
  ('_hashlib', 'C:\\Python39\\DLLs\\_hashlib.pyd', 'EXTENSION'),
  ('libssl-1_1.dll', 'C:\\Python39\\DLLs\\libssl-1_1.dll', 'BINARY'),
  ('libcrypto-1_1.dll', 'C:\\Python39\\DLLs\\libcrypto-1_1.dll', 'BINARY'),
  ('libffi-7.dll', 'C:\\Python39\\DLLs\\libffi-7.dll', 'BINARY'),
  ('base_library.zip',
   'C:\\Users\\atana\\PycharmProjects\\RatioOfNumberList\\build\\RatioOfNumbers\\base_library.zip',
   'DATA'),
  ('RatioOfNumbers.exe.manifest',
   'C:\\Users\\atana\\PycharmProjects\\RatioOfNumberList\\build\\RatioOfNumbers\\RatioOfNumbers.exe.manifest',
   'BINARY'),
  ('pyi-windows-manifest-filename RatioOfNumbers.exe.manifest', '', 'OPTION')],
 False,
 False,
 False,
 [],
 None,
 None,
 None)
